{
  "Id": "Policy1530317893128",
  "Version": "2012-10-17",
  "Statement": [
    {
      "Sid": "Allow access from certain url",
      "Action": "s3:*",
      "Effect": "Allow",
      "Resource": "arn:aws:s3:::my-bucket-0909090/*",
      "Condition": {
        "StringLike": {
          "aws:Referer": "*pgedirectoryapploadbalancer*"
        }
      },
      "Principal": "*"
    }
  ]
}
