{
    "Resources":
    {
        "pgedirectoryInstance": {
            "Type" : "AWS::EC2::Instance",
            "Properties": {
                "ImageId": "ami-afd15ed0",
                "InstanceType": "t2.micro",
                "KeyName" : { "Ref" : "KeyName" },
                "NetworkInterfaces": [ {
                    "AssociatePublicIpAddress": "true",
                    "DeviceIndex": "0",
                    "GroupSet": [{ "Ref" : "pgedirectorySecurityGroup" }],
                    "SubnetId": { "Ref" : "pgedirectorySubnet1" }
                } ],
                "IamInstanceProfile" : {
                    "Ref" : "S3BucketsInstanceProfile"
                },
                "Tags": [
                  {"Key" : "Name", "Value" : "pge-tomcat"}
                ],
                "UserData" : { "Ref" : "UserDataFile" }
            }
        },
        "pgedirectoryVPC": {
            "Type": "AWS::EC2::VPC",
            "Properties": {
                "CidrBlock": "10.0.0.0/16",
                "EnableDnsHostnames": true,
                "Tags": [ { "Key": "resclass", "Value": "pgedirectory-vpc" },
                          {"Key": "Name", "Value": "pgedirectoryVpc"}
                ]
            }
        },
        "pgedirectorySubnet1": {
            "Type": "AWS::EC2::Subnet",
            "Properties": {
                "CidrBlock": "10.0.0.0/17",
                "MapPublicIpOnLaunch": true,
                "AvailabilityZone": "us-east-1a",
                "Tags": [
                    { "Key": "resclass", "Value": "pgedirectory-subnet1" },
                    { "Key": "subnet-type", "Value": "public" }
                    ],
                "VpcId": { "Ref": "pgedirectoryVPC" }
            }
        },
        "pgedirectorySubnet2": {
            "Type": "AWS::EC2::Subnet",
            "Properties": {
                "CidrBlock": "10.0.128.0/17",
                "MapPublicIpOnLaunch": true,
                "AvailabilityZone": "us-east-1b",
                "Tags": [
                    { "Key": "resclass", "Value": "pgedirectory-subnet2" },
                    { "Key": "subnet-type", "Value": "public" }
                    ],
                "VpcId": { "Ref": "pgedirectoryVPC" }
            }
        },
        "pgedirectoryGateway": {
            "Type": "AWS::EC2::InternetGateway",
            "Properties": {
                "Tags": [ { "Key": "resclass", "Value": "pgedirectory-gateway" } ]
            }
        },
        "pgedirectoryGatewayAttachment": {
            "Type": "AWS::EC2::VPCGatewayAttachment",
            "Properties": {
                "InternetGatewayId": { "Ref": "pgedirectoryGateway" },
                "VpcId": { "Ref": "pgedirectoryVPC" }
            }
        },
        "pgedirectoryRouteTable": {
            "Type": "AWS::EC2::RouteTable",
            "Properties": {
                "VpcId": { "Ref": "pgedirectoryVPC" },
                "Tags": [
                    { "Key": "resclass", "Value": "pgedirectory-routetable" },
                    {"Key": "routetable-type", "Value": "public" }
                ]
            }
        },
        "pgedirectoryPublicDefaultRoute": {
            "Type": "AWS::EC2::Route",
            "Properties": {
                "DestinationCidrBlock": "0.0.0.0/0",
                "GatewayId": { "Ref": "pgedirectoryGateway" },
                "RouteTableId": { "Ref": "pgedirectoryRouteTable" }
            }
        },
        "pgedirectorySubnet1Assoc": {
            "Type": "AWS::EC2::SubnetRouteTableAssociation",
            "Properties": {
                "SubnetId": { "Ref": "pgedirectorySubnet1" },
                "RouteTableId": { "Ref": "pgedirectoryRouteTable" }
            }
        },
        "pgedirectorySubnet2Assoc": {
            "Type": "AWS::EC2::SubnetRouteTableAssociation",
            "Properties": {
                "SubnetId": { "Ref": "pgedirectorySubnet2" },
                "RouteTableId": { "Ref": "pgedirectoryRouteTable" }
            }
        },
        "pgedirectorySecurityGroup" : {
            "Type" : "AWS::EC2::SecurityGroup",
            "Properties" : {
                "GroupDescription" : "Enable SSH access via port 22",
                "VpcId" : {"Ref" : "pgedirectoryVPC"},
                "SecurityGroupIngress" :
                [
                    {
                        "IpProtocol" : "tcp",
                        "FromPort" : "22",
                        "ToPort" : "22",
                        "CidrIp" : { "Ref" : "SSHLocation"}
                    },
                    {
                    "IpProtocol" : "tcp",
                    "FromPort" : "8080",
                    "ToPort" : "8080",
                    "CidrIp" : { "Ref" : "SSHLocation" }
                    }
                ],
                "SecurityGroupEgress" : [{
                    "IpProtocol" : "tcp",
                    "FromPort" : "0",
                    "ToPort" : "65535",
                    "CidrIp" : { "Ref" : "SSHLocation"}
                    }]
                }
            },
        "S3BucketsInstanceProfile" : {
            "Type" : "AWS::IAM::InstanceProfile",
            "Properties" : {
                "Path" : "/",
                "Roles" : [{
                    "Ref" : "S3BucketsRole"
                }]
            }
        },
        "S3BucketsPolicy" : {
            "Type" : "AWS::IAM::Policy",
            "Properties" : {
                "PolicyName" : "S3BucketsPolicy",
                "PolicyDocument" : {
                "Statement" : [{
                    "Effect" : "Allow",
                    "Action" : ["s3:*"],
                    "Resource" :["*"]
                    }]
                },
            "Roles" : [{
                "Ref" : "S3BucketsRole"
                }]
            }
        },
        "S3BucketsRole" : {
            "Type" : "AWS::IAM::Role",
            "Properties" : {
                "AssumeRolePolicyDocument": {
                "Version" : "2012-10-17",
                "Statement" : [{
                    "Effect" : "Allow",
                    "Principal": { "Service": "ec2.amazonaws.com"},
                    "Action" : "sts:AssumeRole"
                        }]
                    },
                "Path" : "/"
                }
        },

        "pgedirectoryLaunchConfig":{
            "Type" : "AWS::AutoScaling::LaunchConfiguration",
            "Properties" : {
                "AssociatePublicIpAddress" : "true",
                "InstanceId" : { "Ref" : "pgedirectoryInstance"}
            },
            "DependsOn" : "pgedirectoryGatewayAttachment"
        },

        "pgedirectoryAutoScalingGroup" : {
            "Type" : "AWS::AutoScaling::AutoScalingGroup",
            "Properties" : {
                "AvailabilityZones" : ["us-east-1a","us-east-1b"],
                "LaunchConfigurationName" : { "Ref" : "pgedirectoryLaunchConfig" },
                "MinSize" : "2",
                "MaxSize" : "2",
                "VPCZoneIdentifier" : [{ "Ref" : "pgedirectorySubnet1" }, { "Ref" : "pgedirectorySubnet2" }],
                "Tags" : [ {
                            "Key" : "Name",
                            "Value" : "pge-tomcat",
                            "PropagateAtLaunch" : "true"
                            } ]
            }
        }
    },
    "Parameters" :
    {
        "KeyName": {
            "Description" : "Name of an existing EC2 KeyPair to enable SSH access to the instance",
            "Type": "AWS::EC2::KeyPair::KeyName",
            "ConstraintDescription" : "must be the name of an existing EC2 KeyPair."
        },
        "UserDataFile": {
            "Description" : "Name of a bash script to do the needful",
            "Type": "String",
            "ConstraintDescription" : "must be the name of an existing bash script."
        },
        "SSHLocation" : {
            "Description" : "The IP address range that can be used to SSH to the EC2 instances",
            "Type": "String",
            "MinLength": "9",
            "MaxLength": "18",
            "Default": "0.0.0.0/0",
            "AllowedPattern": "(\\d{1,3})\\.(\\d{1,3})\\.(\\d{1,3})\\.(\\d{1,3})/(\\d{1,2})",
            "ConstraintDescription": "must be a valid IP CIDR range of the form x.x.x.x/x."
        }

    },
    "Outputs" : {
        "ServerAddress" : {
          "Value" : { "Fn::GetAtt" : [ "pgedirectoryInstance", "PublicDnsName" ] },
          "Description" : "Server Domain Name"
        },
        "SecurityGroup" : {
          "Value" : { "Fn::GetAtt" : [ "pgedirectorySecurityGroup", "GroupId" ] },
          "Description" : "Server Security Group Id"
        },
        "PublicIp" : {
          "Value" : { "Fn::GetAtt" : [ "pgedirectoryInstance", "PublicIp" ]},
          "Description" : "Server's PublicIp Address"
        }
      }
}
